\relax 
\providecommand\hyper@newdestlabel[2]{}
\providecommand\HyperFirstAtBeginDocument{\AtBeginDocument}
\HyperFirstAtBeginDocument{\ifx\hyper@anchor\@undefined
\global\let\oldcontentsline\contentsline
\gdef\contentsline#1#2#3#4{\oldcontentsline{#1}{#2}{#3}}
\global\let\oldnewlabel\newlabel
\gdef\newlabel#1#2{\newlabelxx{#1}#2}
\gdef\newlabelxx#1#2#3#4#5#6{\oldnewlabel{#1}{{#2}{#3}}}
\AtEndDocument{\ifx\hyper@anchor\@undefined
\let\contentsline\oldcontentsline
\let\newlabel\oldnewlabel
\fi}
\fi}
\global\let\hyper@last\relax 
\gdef\HyperFirstAtBeginDocument#1{#1}
\providecommand\HyField@AuxAddToFields[1]{}
\providecommand\HyField@AuxAddToCoFields[2]{}
\citation{dota2cp}
\citation{conley}
\citation{agarwala}
\citation{pobiedina}
\citation{traas}
\citation{kalyanaraman}
\citation{semenov}
\citation{semenov2}
\citation{myslak}
\citation{kotaku}
\citation{wu}
\citation{hodge}
\citation{nascimento}
\citation{chen}
\citation{almeida}
\citation{makarov}
\citation{sapienza}
\citation{wang}
\citation{beskyd}
\citation{grutzik}
\citation{maymin}
\citation{yang}
\citation{puYang}
\citation{schubert}
\citation{johansson}
\citation{yu}
\citation{deja}
\@writefile{toc}{\contentsline {section}{\numberline {1}Introduction}{1}{section.1}}
\@writefile{toc}{\contentsline {section}{\numberline {2}Related Work}{1}{section.2}}
\citation{agarwala}
\@writefile{toc}{\contentsline {section}{\numberline {3}Context}{2}{section.3}}
\@writefile{toc}{\contentsline {subsection}{\numberline {3.1}Requirements}{2}{subsection.3.1}}
\@writefile{toc}{\contentsline {subsection}{\numberline {3.2}Future features}{2}{subsection.3.2}}
\@writefile{toc}{\contentsline {section}{\numberline {4}Data gathering}{3}{section.4}}
\@writefile{toc}{\contentsline {subsection}{\numberline {4.1}Data sources}{3}{subsection.4.1}}
\@writefile{toc}{\contentsline {subsubsection}{\numberline {4.1.1}Riot Games API}{3}{subsubsection.4.1.1}}
\@writefile{toc}{\contentsline {subsubsection}{\numberline {4.1.2}Champion.gg Open API}{3}{subsubsection.4.1.2}}
\@writefile{toc}{\contentsline {subsubsection}{\numberline {4.1.3}op.gg web scraping and AJAX API}{4}{subsubsection.4.1.3}}
\@writefile{toc}{\contentsline {subsection}{\numberline {4.2}Data crawling}{4}{subsection.4.2}}
\@writefile{toc}{\contentsline {subsubsection}{\numberline {4.2.1}Requirements}{4}{subsubsection.4.2.1}}
\@writefile{toc}{\contentsline {subsubsection}{\numberline {4.2.2}Collected match data format}{5}{subsubsection.4.2.2}}
\@writefile{toc}{\contentsline {subsubsection}{\numberline {4.2.3}Crawler specification}{5}{subsubsection.4.2.3}}
\@writefile{toc}{\contentsline {section}{\numberline {5}Approach}{6}{section.5}}
\@writefile{toc}{\contentsline {subsection}{\numberline {5.1}Model selection}{6}{subsection.5.1}}
\@writefile{toc}{\contentsline {subsection}{\numberline {5.2}Feature engineering}{6}{subsection.5.2}}
\@writefile{lof}{\contentsline {figure}{\numberline {1}{\ignorespaces Feature extraction overview. Brackets indicate data that is only used in training.}}{7}{figure.1}}
\newlabel{figure:featureExtractionDiagram}{{1}{7}{Feature extraction overview. Brackets indicate data that is only used in training}{figure.1}{}}
\@writefile{toc}{\contentsline {subsubsection}{\numberline {5.2.1}Input data format (end user team composition selection interface)}{7}{subsubsection.5.2.1}}
\newlabel{eq:userInputRoles}{{1}{8}{Input data format (end user team composition selection interface)}{equation.5.1}{}}
\newlabel{eq:userInputChampions}{{2}{8}{Input data format (end user team composition selection interface)}{equation.5.2}{}}
\newlabel{eq:userInputPlayers}{{3}{8}{Input data format (end user team composition selection interface)}{equation.5.3}{}}
\@writefile{toc}{\contentsline {subsubsection}{\numberline {5.2.2}Final features}{8}{subsubsection.5.2.2}}
\@writefile{toc}{\contentsline {subsection}{\numberline {5.3}Feature selection}{12}{subsection.5.3}}
\@writefile{toc}{\contentsline {subsection}{\numberline {5.4}Model definition}{13}{subsection.5.4}}
\@writefile{toc}{\contentsline {subsection}{\numberline {5.5}Incomplete data}{13}{subsection.5.5}}
\@writefile{toc}{\contentsline {subsection}{\numberline {5.6}Prediction postprocessing}{14}{subsection.5.6}}
\bibcite{dota2cp}{1}
\bibcite{conley}{2}
\bibcite{agarwala}{3}
\bibcite{pobiedina}{4}
\bibcite{traas}{5}
\bibcite{kalyanaraman}{6}
\bibcite{semenov}{7}
\bibcite{semenov2}{8}
\bibcite{myslak}{9}
\bibcite{kotaku}{10}
\bibcite{wu}{11}
\bibcite{hodge}{12}
\bibcite{nascimento}{13}
\bibcite{chen}{14}
\@writefile{toc}{\contentsline {section}{\numberline {6}Experiments}{15}{section.6}}
\@writefile{toc}{\contentsline {section}{\numberline {7}Conclusions}{15}{section.7}}
\bibcite{almeida}{15}
\bibcite{makarov}{16}
\bibcite{sapienza}{17}
\bibcite{wang}{18}
\bibcite{beskyd}{19}
\bibcite{grutzik}{20}
\bibcite{maymin}{21}
\bibcite{yang}{22}
\bibcite{puYang}{23}
\bibcite{schubert}{24}
\bibcite{johansson}{25}
\bibcite{yu}{26}
\bibcite{deja}{27}
