\relax 
\providecommand\hyper@newdestlabel[2]{}
\providecommand\HyperFirstAtBeginDocument{\AtBeginDocument}
\HyperFirstAtBeginDocument{\ifx\hyper@anchor\@undefined
\global\let\oldcontentsline\contentsline
\gdef\contentsline#1#2#3#4{\oldcontentsline{#1}{#2}{#3}}
\global\let\oldnewlabel\newlabel
\gdef\newlabel#1#2{\newlabelxx{#1}#2}
\gdef\newlabelxx#1#2#3#4#5#6{\oldnewlabel{#1}{{#2}{#3}}}
\AtEndDocument{\ifx\hyper@anchor\@undefined
\let\contentsline\oldcontentsline
\let\newlabel\oldnewlabel
\fi}
\fi}
\global\let\hyper@last\relax 
\gdef\HyperFirstAtBeginDocument#1{#1}
\providecommand\HyField@AuxAddToFields[1]{}
\providecommand\HyField@AuxAddToCoFields[2]{}
\citation{hudson}
\citation{olsson}
\citation{olsson}
\@writefile{toc}{\contentsline {section}{\numberline {1}Updated requirements and completion}{1}{section.1}}
\@writefile{toc}{\contentsline {subsection}{\numberline {1.1}Existing requirements}{1}{subsection.1.1}}
\@writefile{toc}{\contentsline {subsection}{\numberline {1.2}New requirements}{1}{subsection.1.2}}
\@writefile{toc}{\contentsline {section}{\numberline {2}Methods}{2}{section.2}}
\@writefile{toc}{\contentsline {subsection}{\numberline {2.1}Validation}{2}{subsection.2.1}}
\@writefile{toc}{\contentsline {subsection}{\numberline {2.2}Parameter tuning}{3}{subsection.2.2}}
\bibcite{olsson}{1}
\bibcite{hudson}{2}
\@writefile{toc}{\contentsline {section}{\numberline {3}Complex interactions}{4}{section.3}}
\@writefile{toc}{\contentsline {section}{\numberline {4}Heuristic search depth}{4}{section.4}}
