\relax 
\providecommand\hyper@newdestlabel[2]{}
\providecommand\HyperFirstAtBeginDocument{\AtBeginDocument}
\HyperFirstAtBeginDocument{\ifx\hyper@anchor\@undefined
\global\let\oldcontentsline\contentsline
\gdef\contentsline#1#2#3#4{\oldcontentsline{#1}{#2}{#3}}
\global\let\oldnewlabel\newlabel
\gdef\newlabel#1#2{\newlabelxx{#1}#2}
\gdef\newlabelxx#1#2#3#4#5#6{\oldnewlabel{#1}{{#2}{#3}}}
\AtEndDocument{\ifx\hyper@anchor\@undefined
\let\contentsline\oldcontentsline
\let\newlabel\oldnewlabel
\fi}
\fi}
\global\let\hyper@last\relax 
\gdef\HyperFirstAtBeginDocument#1{#1}
\providecommand\HyField@AuxAddToFields[1]{}
\providecommand\HyField@AuxAddToCoFields[2]{}
\citation{conley}
\citation{crust}
\citation{csapo}
\citation{swann}
\citation{palomaki}
\citation{wei}
\citation{ong}
\citation{kou}
\@writefile{toc}{\contentsline {section}{Abstract}{1}{section*.1}\protected@file@percent }
\@writefile{toc}{\contentsline {section}{\numberline {1}Introduction}{1}{section.1}\protected@file@percent }
\citation{dota2cp}
\citation{conley}
\citation{agarwala}
\citation{kalyanaraman}
\citation{almeida}
\citation{sapienza}
\citation{ong}
\citation{chen}
\citation{grutzik}
\citation{yao}
\citation{lan}
\citation{zhang}
\citation{openai}
\citation{wei}
\@writefile{toc}{\contentsline {subsection}{\numberline {1.1}Game Description}{2}{subsection.1.1}\protected@file@percent }
\@writefile{lof}{\contentsline {figure}{\numberline {1}{\ignorespaces Map of Summoner's Rift.\relax }}{2}{figure.caption.5}\protected@file@percent }
\providecommand*\caption@xref[2]{\@setref\relax\@undefined{#1}}
\newlabel{fig:srMap}{{1}{2}{Map of Summoner's Rift.\relax }{figure.caption.5}{}}
\@writefile{toc}{\contentsline {section}{\numberline {2}Related Work}{2}{section.2}\protected@file@percent }
\citation{murre}
\citation{ebbinghaus}
\@writefile{toc}{\contentsline {section}{\numberline {3}Dataset}{3}{section.3}\protected@file@percent }
\@writefile{toc}{\contentsline {section}{\numberline {4}Methodology}{3}{section.4}\protected@file@percent }
\@writefile{toc}{\contentsline {subsection}{\numberline {4.1}Feature Engineering}{3}{subsection.4.1}\protected@file@percent }
\@writefile{toc}{\contentsline {subsubsection}{\numberline {4.1.1}Experimental momentum retention representation}{3}{subsubsection.4.1.1}\protected@file@percent }
\@writefile{lof}{\contentsline {figure}{\numberline {2}{\ignorespaces Bayesian optimisation of momentum constants.\relax }}{3}{figure.caption.6}\protected@file@percent }
\newlabel{fig:mtmHypOpt}{{2}{3}{Bayesian optimisation of momentum constants.\relax }{figure.caption.6}{}}
\@writefile{toc}{\contentsline {subsubsection}{\numberline {4.1.2}Rolling statistics medium-term momentum representation}{3}{subsubsection.4.1.2}\protected@file@percent }
\@writefile{lof}{\contentsline {figure}{\numberline {3}{\ignorespaces \centering  Distribution of $\alpha $ values in the AutoLog layer for scalar features, over training, before and after adjustment.\relax }}{3}{figure.caption.7}\protected@file@percent }
\newlabel{fig:alphaDist}{{3}{3}{\centering Distribution of $\alpha $ values in the AutoLog layer for scalar features, over training, before and after adjustment.\relax }{figure.caption.7}{}}
\@writefile{toc}{\contentsline {subsubsection}{\numberline {4.1.3}Automatic Logarithmic Scaling}{3}{figure.caption.7}\protected@file@percent }
\@writefile{toc}{\contentsline {subsubsection}{\numberline {4.1.4}Feature Selection}{4}{subsubsection.4.1.4}\protected@file@percent }
\@writefile{toc}{\contentsline {subsection}{\numberline {4.2}Model Architectures}{4}{subsection.4.2}\protected@file@percent }
\@writefile{toc}{\contentsline {subsubsection}{\numberline {4.2.1}Linear Model}{4}{subsubsection.4.2.1}\protected@file@percent }
\@writefile{lof}{\contentsline {figure}{\numberline {4}{\ignorespaces Win prediction multi-task recurrent network.\relax }}{4}{figure.caption.8}\protected@file@percent }
\newlabel{fig:networkDiagram}{{4}{4}{Win prediction multi-task recurrent network.\relax }{figure.caption.8}{}}
\@writefile{lot}{\contentsline {table}{\numberline {1}{\ignorespaces \centering  Multi-task learning targets for post-draft network.\relax }}{4}{table.caption.9}\protected@file@percent }
\newlabel{tab:modelOutputs}{{1}{4}{\centering Multi-task learning targets for post-draft network.\relax }{table.caption.9}{}}
\@writefile{toc}{\contentsline {subsubsection}{\numberline {4.2.2}Neural network}{4}{subsubsection.4.2.2}\protected@file@percent }
\citation{reddi}
\citation{ong}
\citation{ong}
\citation{chen}
\citation{chen}
\@writefile{lot}{\contentsline {table}{\numberline {2}{\ignorespaces \centering  Post-draft network architecture importances.\relax }}{5}{table.caption.10}\protected@file@percent }
\newlabel{tab:modelImprovements}{{2}{5}{\centering Post-draft network architecture importances.\relax }{table.caption.10}{}}
\@writefile{toc}{\contentsline {section}{\numberline {5}Experiments}{5}{section.5}\protected@file@percent }
\@writefile{toc}{\contentsline {subsection}{\numberline {5.1}Model Evaluation}{5}{subsection.5.1}\protected@file@percent }
\@writefile{lot}{\contentsline {table}{\numberline {3}{\ignorespaces \centering  Learning algorithm comparison. \normalfont  {This may also show the change in predictive game factors since earlier studies.}\relax }}{5}{table.caption.11}\protected@file@percent }
\newlabel{tab:modelComparison}{{3}{5}{\centering Learning algorithm comparison. \normalfont {This may also show the change in predictive game factors since earlier studies.}\relax }{table.caption.11}{}}
\@writefile{lof}{\contentsline {figure}{\numberline {5}{\ignorespaces Approximate Feature Group Importances.\relax }}{5}{figure.caption.12}\protected@file@percent }
\newlabel{fig:featImps}{{5}{5}{Approximate Feature Group Importances.\relax }{figure.caption.12}{}}
\citation{kou}
\citation{herce}
\@writefile{toc}{\contentsline {subsection}{\numberline {5.2}League of Legends Game Factors}{6}{subsection.5.2}\protected@file@percent }
\@writefile{toc}{\contentsline {subsection}{\numberline {5.3}Influence and Momentum Models}{6}{subsection.5.3}\protected@file@percent }
\@writefile{lof}{\contentsline {figure}{\numberline {6}{\ignorespaces \centering  Accuracy for representative groups of players with similar streakiness tendency (either win or loss).\relax }}{6}{figure.caption.13}\protected@file@percent }
\newlabel{fig:momentumWins}{{6}{6}{\centering Accuracy for representative groups of players with similar streakiness tendency (either win or loss).\relax }{figure.caption.13}{}}
\@writefile{toc}{\contentsline {section}{\numberline {6}Discussion}{6}{section.6}\protected@file@percent }
\@writefile{lof}{\contentsline {figure}{\numberline {7}{\ignorespaces Two players' momentum estimates over time.\relax }}{6}{figure.caption.14}\protected@file@percent }
\newlabel{fig:mtmTime}{{7}{6}{Two players' momentum estimates over time.\relax }{figure.caption.14}{}}
\@writefile{toc}{\contentsline {section}{\numberline {7}Conclusions}{6}{section.7}\protected@file@percent }
\citation{agarwala}
\citation{chen}
\citation{stannett}
\citation{christiano}
\citation{skarupova}
\citation{bekir}
\@writefile{toc}{\contentsline {subsection}{\numberline {7.1}Limitations}{7}{subsection.7.1}\protected@file@percent }
\newlabel{sec:dataRes}{{7.1.1}{7}{Data Resolution}{subsubsection.7.1.1}{}}
\@writefile{toc}{\contentsline {subsubsection}{\numberline {7.1.1}Data Resolution}{7}{subsubsection.7.1.1}\protected@file@percent }
\@writefile{toc}{\contentsline {subsection}{\numberline {7.2}Future Work}{7}{subsection.7.2}\protected@file@percent }
\@writefile{toc}{\contentsline {subsubsection}{\numberline {7.2.1}Draft Pick Recommendations}{7}{subsubsection.7.2.1}\protected@file@percent }
\@writefile{toc}{\contentsline {subsubsection}{\numberline {7.2.2}Application to DotA 2}{7}{subsubsection.7.2.2}\protected@file@percent }
\@writefile{lof}{\contentsline {figure}{\numberline {8}{\ignorespaces Example \emph  {Flow} notification.\relax }}{7}{figure.caption.15}\protected@file@percent }
\newlabel{fig:flowApp}{{8}{7}{Example \emph {Flow} notification.\relax }{figure.caption.15}{}}
\@writefile{toc}{\contentsline {subsubsection}{\numberline {7.2.3}Flow App}{7}{figure.caption.15}\protected@file@percent }
\@writefile{toc}{\contentsline {subsubsection}{\numberline {7.2.4}Adaptive Notification Strategy}{7}{subsubsection.7.2.4}\protected@file@percent }
\@writefile{toc}{\contentsline {subsubsection}{\numberline {7.2.5}Longitudinal Survey}{7}{subsubsection.7.2.5}\protected@file@percent }
\@writefile{toc}{\contentsline {subsection}{\numberline {7.3}Applications}{7}{subsection.7.3}\protected@file@percent }
\newlabel{sec:otherAreas}{{7.3}{7}{Applications}{subsection.7.3}{}}
\bibstyle{ACM-Reference-Format}
\bibdata{references}
\bibcite{dota2cp}{{1}{2013}{{dot}}{{??}}}
\bibcite{agarwala}{{2}{2014}{{Agarwala and Pearce}}{{Agarwala and Pearce}}}
\bibcite{almeida}{{3}{2017}{{Almeida et~al\mbox  {.}}}{{Almeida, Correia, Eler, Olivete-Jr, Garci, Scabora, and Spadon}}}
\bibcite{bekir}{{4}{2019}{{Bekir and {\c {C}}elik}}{{Bekir and {\c {C}}elik}}}
\bibcite{chen}{{5}{2017}{{Chen et~al\mbox  {.}}}{{Chen, Sun, El-Nasr, and Nguyen}}}
\bibcite{christiano}{{6}{2017}{{Christiano et~al\mbox  {.}}}{{Christiano, Leike, Brown, Martic, Legg, and Amodei}}}
\bibcite{conley}{{7}{2013}{{Conley and Perry}}{{Conley and Perry}}}
\bibcite{crust}{{8}{2006}{{Crust and Nesti}}{{Crust and Nesti}}}
\bibcite{csapo}{{9}{2015}{{Csapo et~al\mbox  {.}}}{{Csapo, Avugos, Raab, and Bar-Eli}}}
\bibcite{ebbinghaus}{{10}{1885}{{Ebbinghaus}}{{Ebbinghaus}}}
\bibcite{grutzik}{{11}{2017}{{Grutzik et~al\mbox  {.}}}{{Grutzik, Higgins, and Tran}}}
\bibcite{herce}{{12}{2018}{{Herce~Casta{\~n}{\'o}n et~al\mbox  {.}}}{{Herce~Casta{\~n}{\'o}n, Bang, Moran, Ding, Egner, and Summerfield}}}
\bibcite{kalyanaraman}{{13}{2014}{{Kalyanaraman}}{{Kalyanaraman}}}
\bibcite{kou}{{14}{2018}{{Kou et~al\mbox  {.}}}{{Kou, Li, Gui, and Suzuki-Gill}}}
\bibcite{lan}{{15}{2018}{{Lan et~al\mbox  {.}}}{{Lan, Duan, Chen, Qin, Nummenmaa, and Nummenmaa}}}
\bibcite{murre}{{16}{2015}{{Murre and Dros}}{{Murre and Dros}}}
\bibcite{ong}{{17}{2015}{{Ong et~al\mbox  {.}}}{{Ong, Deolalikar, and Peng}}}
\bibcite{openai}{{18}{2019}{{OpenAI}}{{OpenAI}}}
\bibcite{palomaki}{{19}{2013}{{Palom{\"a}ki et~al\mbox  {.}}}{{Palom{\"a}ki, Laakasuo, and Salmela}}}
\bibcite{reddi}{{20}{2019}{{Reddi et~al\mbox  {.}}}{{Reddi, Kale, and Kumar}}}
\bibcite{sapienza}{{21}{2018}{{Sapienza et~al\mbox  {.}}}{{Sapienza, Goyal, and Ferrara}}}
\bibcite{skarupova}{{22}{2015}{{{\v {S}}ka{\v {r}}upov{\'a} and Blinka}}{{{\v {S}}ka{\v {r}}upov{\'a} and Blinka}}}
\bibcite{stannett}{{23}{2016}{{Stannett et~al\mbox  {.}}}{{Stannett, Sedeeq, and Romano}}}
\bibcite{swann}{{24}{2012}{{Swann et~al\mbox  {.}}}{{Swann, Keegan, Piggo, and Crust}}}
\bibcite{wei}{{25}{2016}{{Wei et~al\mbox  {.}}}{{Wei, Palomaki, Yan, and Robinson}}}
\bibcite{yao}{{26}{2018}{{Yao et~al\mbox  {.}}}{{Yao, Liao, and Jin}}}
\bibcite{zhang}{{27}{2019}{{Zhang et~al\mbox  {.}}}{{Zhang, Li, Zhang, Zheng, Zhang, Hao, Chen, Chen, Xiao, and Zhou}}}
\newlabel{tocindent-1}{0pt}
\newlabel{tocindent0}{0pt}
\newlabel{tocindent1}{6.25499pt}
\newlabel{tocindent2}{10.34999pt}
\newlabel{tocindent3}{18.198pt}
\@writefile{toc}{\contentsline {section}{References}{8}{section*.17}\protected@file@percent }
\@writefile{toc}{\contentsline {section}{\numberline {A}Feature List}{8}{appendix.A}\protected@file@percent }
\newlabel{sec:allfeats}{{A}{8}{Feature List}{appendix.A}{}}
\newlabel{TotPages}{{8}{8}{}{page.8}{}}
