Model comparison

GaussianNB                      87743, 2228  (5, 5, 5, 5, 5, 5, 5)   True   58.57 59.29 55.73 53.0 36.59 58.57 36.59   2019-11-21 02:28:08  2019-11-21 02:29:34
BernoulliNB                     87743, 2228  (5, 5, 5, 5, 5, 5, 5)   True   60.24 60.55 58.46 57.0 27.7 60.24 27.7   2019-11-21 02:44:57  2019-11-21 02:46:31
LinearDiscriminantAnalysis      87743, 2228  (5, 5, 5, 5, 5, 5, 5)   True   69.3 72.2 66.02 64.0 1.91 69.3 1.91    2019-11-21 02:58:53   2019-11-21 03:01:44
QuadraticDiscriminantAnalysis   87743, 2228  (5, 5, 5, 5, 5, 5, 5)   True   56.43 99.41 53.38 51.0 40.65 56.43 40.65   2019-11-21 03:57:06  2019-11-21 03:59:55
LinearSVC L1                    87743, 2228  (5, 5, 5, 5, 5, 5, 5)   True   69.94 72.03 66.46 65.0        2019-11-21 03:14:39   2019-11-21 03:53:00
LinearSVC L2                    87743, 2228  (5, 5, 5, 5, 5, 5, 5)   True   69.86 72.05 66.12 66.0      2019-11-21 04:02:00   2019-11-21 04:53:40
KNeighborsClassifier            
SVC                             
GaussianProcessClassifier                             
AdaBoostClassifier              87743, 2228  (5, 5, 5, 5, 5, 5, 5)   True  2019-11-21 04:56:37 2019-11-21 04:57:13   68.17 68.85 61.76 56.0 17.84 68.17 17.84    2019-11-21 05:16:07
LogisticRegression              87743, 2228  (5, 5, 5, 5, 5, 5, 5)   True 2019-11-21 15:33:06   69.96 72.06 66.33 66.0 2.5 69.96 2.5    2019-11-21 15:39:16
RidgeClassifier                 


36 seconds data preproc