\relax 
\providecommand\hyper@newdestlabel[2]{}
\providecommand\HyperFirstAtBeginDocument{\AtBeginDocument}
\HyperFirstAtBeginDocument{\ifx\hyper@anchor\@undefined
\global\let\oldcontentsline\contentsline
\gdef\contentsline#1#2#3#4{\oldcontentsline{#1}{#2}{#3}}
\global\let\oldnewlabel\newlabel
\gdef\newlabel#1#2{\newlabelxx{#1}#2}
\gdef\newlabelxx#1#2#3#4#5#6{\oldnewlabel{#1}{{#2}{#3}}}
\AtEndDocument{\ifx\hyper@anchor\@undefined
\let\contentsline\oldcontentsline
\let\newlabel\oldnewlabel
\fi}
\fi}
\global\let\hyper@last\relax 
\gdef\HyperFirstAtBeginDocument#1{#1}
\providecommand\HyField@AuxAddToFields[1]{}
\providecommand\HyField@AuxAddToCoFields[2]{}
\providecommand\tcolorbox@label[2]{}
\select@language{english}
\@writefile{toc}{\select@language{english}}
\@writefile{lof}{\select@language{english}}
\@writefile{lot}{\select@language{english}}
\citation{sopermiller}
\citation{griffiths}
\citation{wittek}
\citation{saunders}
\citation{zendle}
\citation{parker}
\citation{gainsbury}
\citation{chen2}
\citation{park}
\citation{liu}
\citation{ko}
\citation{du}
\citation{han}
\citation{han}
\citation{nbowman}
\citation{bean}
\citation{deleuze}
\citation{king}
\citation{lemmens}
\@writefile{toc}{\contentsline {chapter}{\numberline {1}Introduction}{3}{chapter.1}}
\@writefile{lof}{\addvspace {10\p@ }}
\@writefile{lot}{\addvspace {10\p@ }}
\citation{urban}
\citation{browne}
\citation{wei}
\citation{traas}
\@writefile{toc}{\contentsline {section}{\numberline {1.1}Motivation}{5}{section.1.1}}
\newlabel{sec:motivation}{{1.1}{5}{Motivation}{section.1.1}{}}
\citation{blackburn}
\citation{maher}
\citation{ritotilt}
\citation{tyack}
\citation{tyack}
\citation{tyack}
\citation{skarupova}
\citation{solinas}
\citation{kou}
\@writefile{lof}{\contentsline {figure}{\numberline {1.1}{\ignorespaces Player preferences (a) and mood (b) related to social play \cite  {tyack}.\relax }}{7}{figure.caption.2}}
\providecommand*\caption@xref[2]{\@setref\relax\@undefined{#1}}
\newlabel{fig:playerMood}{{1.1}{7}{Player preferences (a) and mood (b) related to social play \cite {tyack}.\relax }{figure.caption.2}{}}
\@writefile{toc}{\contentsline {section}{\numberline {1.2}Contributions}{8}{section.1.2}}
\citation{meredith}
\citation{delfabbro}
\citation{graham}
\citation{miller}
\citation{meredith}
\citation{stockdale}
\citation{weinstein}
\citation{petry}
\citation{vanrooij}
\citation{kuss}
\citation{kardefelt}
\citation{ferguson}
\citation{aarseth}
\citation{mihara}
\citation{kiraly}
\citation{james}
\citation{higuchi}
\citation{przybylski}
\citation{rumpf}
\citation{saunders}
\citation{colwell}
\@writefile{toc}{\contentsline {chapter}{\numberline {2}Background}{9}{chapter.2}}
\@writefile{lof}{\addvspace {10\p@ }}
\@writefile{lot}{\addvspace {10\p@ }}
\@writefile{toc}{\contentsline {section}{\numberline {2.1}Internet Gaming Addiction}{9}{section.2.1}}
\citation{pontes}
\citation{montag}
\citation{igdbook}
\citation{herd}
\citation{montag}
\citation{lemmens}
\citation{sariyska}
\citation{laier}
\citation{hyun}
\citation{komnenic}
\citation{huanhuan}
\citation{dong}
\citation{ko2}
\citation{yao}
\citation{li}
\citation{qi}
\citation{nuyens}
\citation{brunborg}
\citation{heiden}
\citation{hussain}
\citation{linden}
\citation{su}
\citation{skarupova}
\citation{walker}
\citation{bekir}
\citation{triberti}
\citation{sendurur}
\citation{choi}
\citation{park2}
\citation{lee}
\citation{zajac}
\citation{bonnaire}
\citation{developers}
\citation{corporations}
\citation{heijden}
\citation{arno}
\citation{kou}
\citation{browne}
\citation{wei}
\citation{musolesi}
\citation{tao}
\citation{murphy}
\citation{nemati}
\citation{cover}
\citation{granic}
\citation{cooke}
\citation{kleinberg}
\citation{palomaki}
\citation{palomaki}
\citation{palomaki}
\citation{palomaki}
\citation{ayton}
\citation{brockner}
\citation{wei}
\citation{palomaki}
\citation{laakasuo}
\citation{hudson}
\citation{olsson}
\@writefile{toc}{\contentsline {section}{\numberline {2.2}Nudge Theory}{12}{section.2.2}}
\@writefile{toc}{\contentsline {section}{\numberline {2.3}Psychological Momentum and Tilt}{12}{section.2.3}}
\@writefile{lof}{\contentsline {figure}{\numberline {2.1}{\ignorespaces The tilt meta-narrative \cite  {palomaki}.\relax }}{13}{figure.caption.3}}
\newlabel{fig:aetiology1}{{2.1}{13}{The tilt meta-narrative \cite {palomaki}.\relax }{figure.caption.3}{}}
\@writefile{lof}{\contentsline {figure}{\numberline {2.2}{\ignorespaces Two possible causes of tilt \cite  {palomaki}.\relax }}{13}{figure.caption.4}}
\newlabel{fig:aetiology2}{{2.2}{13}{Two possible causes of tilt \cite {palomaki}.\relax }{figure.caption.4}{}}
\citation{csapo}
\citation{crust}
\citation{swann}
\@writefile{toc}{\contentsline {section}{\numberline {2.4}Multiplayer Online Battle Arenas}{14}{section.2.4}}
\newlabel{sec:mobaBackground}{{2.4}{14}{Multiplayer Online Battle Arenas}{section.2.4}{}}
\@writefile{toc}{\contentsline {subsection}{\numberline {2.4.1}League of Legends Game Structure}{15}{subsection.2.4.1}}
\@writefile{lof}{\contentsline {figure}{\numberline {2.3}{\ignorespaces Map of Summoner's Rift.\relax }}{16}{figure.caption.5}}
\newlabel{fig:summonersRift}{{2.3}{16}{Map of Summoner's Rift.\relax }{figure.caption.5}{}}
\citation{dota2cp}
\citation{conley}
\citation{agarwala}
\citation{pobiedina}
\citation{traas}
\citation{kalyanaraman}
\citation{semenov}
\citation{semenov2}
\citation{myslak}
\citation{kotaku}
\citation{wu}
\citation{hodge}
\citation{nascimento}
\citation{chen}
\citation{almeida}
\citation{makarov}
\citation{graepel}
\citation{sapienza}
\citation{wang}
\citation{beskyd}
\citation{grutzik}
\citation{maymin}
\citation{yang}
\citation{puYang}
\citation{schubert}
\citation{johansson}
\citation{yu}
\citation{deja}
\citation{zhang}
\citation{openai}
\@writefile{toc}{\contentsline {section}{\numberline {2.5}Win Prediction and Artificial Intelligence in MOBAs}{17}{section.2.5}}
\@writefile{toc}{\contentsline {section}{\numberline {2.6}Learning Techniques}{18}{section.2.6}}
\@writefile{toc}{\contentsline {subsection}{\numberline {2.6.1}Item Imputation}{18}{subsection.2.6.1}}
\citation{nakariyakula}
\@writefile{toc}{\contentsline {subsection}{\numberline {2.6.2}Sequential Floating Feature Selection}{19}{subsection.2.6.2}}
\@writefile{toc}{\contentsline {subsection}{\numberline {2.6.3}Principal Component Analysis}{19}{subsection.2.6.3}}
\@writefile{loa}{\contentsline {algorithm}{\numberline {1}{\ignorespaces Sequential Forward Floating Selection (SFFS)\relax }}{20}{algorithm.1}}
\newlabel{alg:sffs}{{1}{20}{Sequential Forward Floating Selection (SFFS)\relax }{algorithm.1}{}}
\@writefile{loa}{\contentsline {algorithm}{\numberline {2}{\ignorespaces Sequential Backward Floating Selection (SBFS)\relax }}{20}{algorithm.2}}
\newlabel{alg:sbfs}{{2}{20}{Sequential Backward Floating Selection (SBFS)\relax }{algorithm.2}{}}
\@writefile{toc}{\contentsline {subsection}{\numberline {2.6.4}Logistic Regression}{21}{subsection.2.6.4}}
\@writefile{lof}{\contentsline {figure}{\numberline {2.4}{\ignorespaces Logistic Regression example\relax }}{21}{figure.caption.6}}
\newlabel{fig:logisticRegression}{{2.4}{21}{Logistic Regression example\relax }{figure.caption.6}{}}
\@writefile{toc}{\contentsline {subsection}{\numberline {2.6.5}Support Vector Classification}{22}{subsection.2.6.5}}
\@writefile{lof}{\contentsline {figure}{\numberline {2.5}{\ignorespaces Support Vector Classification showing the effect of C. The support vectors and width of the margin are represented by the shaded area, the black line is the separating hyperplane.\relax }}{22}{figure.caption.7}}
\newlabel{fig:svm}{{2.5}{22}{Support Vector Classification showing the effect of C. The support vectors and width of the margin are represented by the shaded area, the black line is the separating hyperplane.\relax }{figure.caption.7}{}}
\citation{shen}
\@writefile{toc}{\contentsline {subsection}{\numberline {2.6.6}Deep Learning}{23}{subsection.2.6.6}}
\@writefile{lof}{\contentsline {figure}{\numberline {2.6}{\ignorespaces The simplest deep neural network.\relax }}{23}{figure.caption.8}}
\newlabel{fig:dnn}{{2.6}{23}{The simplest deep neural network.\relax }{figure.caption.8}{}}
\@writefile{toc}{\contentsline {subsubsection}{Operations}{24}{section*.9}}
\@writefile{toc}{\contentsline {subsubsection}{Regularisation}{24}{section*.10}}
\@writefile{toc}{\contentsline {subsubsection}{Optimisation}{24}{section*.11}}
\@writefile{toc}{\contentsline {subsubsection}{Recurrent Networks}{25}{section*.12}}
\@writefile{lof}{\contentsline {figure}{\numberline {2.7}{\ignorespaces The Gated Recurrent Unit (GRU), and an example of a many-to-one network.\relax }}{25}{figure.caption.13}}
\newlabel{fig:rnn}{{2.7}{25}{The Gated Recurrent Unit (GRU), and an example of a many-to-one network.\relax }{figure.caption.13}{}}
\@writefile{toc}{\contentsline {subsection}{\numberline {2.6.7}Multi-Task Learning}{26}{subsection.2.6.7}}
\@writefile{toc}{\contentsline {subsection}{\numberline {2.6.8}Transfer Learning}{26}{subsection.2.6.8}}
\@writefile{toc}{\contentsline {subsection}{\numberline {2.6.9}Reinforcement Learning}{27}{subsection.2.6.9}}
\@writefile{lof}{\contentsline {figure}{\numberline {2.8}{\ignorespaces The reinforcement learning paradigm.\relax }}{27}{figure.caption.14}}
\newlabel{fig:rl}{{2.8}{27}{The reinforcement learning paradigm.\relax }{figure.caption.14}{}}
\@writefile{toc}{\contentsline {chapter}{\numberline {3}Methodology}{28}{chapter.3}}
\@writefile{lof}{\addvspace {10\p@ }}
\@writefile{lot}{\addvspace {10\p@ }}
\@writefile{toc}{\contentsline {section}{\numberline {3.1}Player Performance Modelling}{28}{section.3.1}}
\@writefile{toc}{\contentsline {subsection}{\numberline {3.1.1}Model Inputs}{29}{subsection.3.1.1}}
\newlabel{sec:modelInputs}{{3.1.1}{29}{Model Inputs}{subsection.3.1.1}{}}
\@writefile{toc}{\contentsline {subsection}{\numberline {3.1.2}Feature Engineering}{30}{subsection.3.1.2}}
\newlabel{sec:featureEngineering}{{3.1.2}{30}{Feature Engineering}{subsection.3.1.2}{}}
\@writefile{lof}{\contentsline {figure}{\numberline {3.1}{\ignorespaces Feature extraction overview. Brackets indicate data that is only used in training. cs = creep score (number of minions killed), csf = creep score factor (deviation from the global mean for the given champion, role and Elo), lp = league points, wr = winrate, cwr = on-champion win rate, kda ratio = (kills + assists) $\div $ deaths, green/red boxes = win/loss.\relax }}{30}{figure.caption.15}}
\newlabel{fig:featureExtractionDiagram}{{3.1}{30}{Feature extraction overview. Brackets indicate data that is only used in training. cs = creep score (number of minions killed), csf = creep score factor (deviation from the global mean for the given champion, role and Elo), lp = league points, wr = winrate, cwr = on-champion win rate, kda ratio = (kills + assists) $\div $ deaths, green/red boxes = win/loss.\relax }{figure.caption.15}{}}
\@writefile{toc}{\contentsline {subsection}{\numberline {3.1.3}Engineered Features}{31}{subsection.3.1.3}}
\newlabel{sec:engFeats}{{3.1.3}{31}{Engineered Features}{subsection.3.1.3}{}}
\@writefile{toc}{\contentsline {subsection}{\numberline {3.1.4}Feature Selection}{31}{subsection.3.1.4}}
\@writefile{toc}{\contentsline {subsection}{\numberline {3.1.5}Win Prediction Model}{32}{subsection.3.1.5}}
\@writefile{lof}{\contentsline {figure}{\numberline {3.2}{\ignorespaces Win prediction multi-task recurrent neural network. $x^{(\text  {meta})}$ consists of the player Elo and region, which are also included in $x^{(\text  {flat})}$. $x^{(\text  {rnn})}_{t, \cdot }$ contains the time since the recent match occurred, time of day, duration, overlapping class membership-encoded champion, and stats.\relax }}{32}{figure.caption.16}}
\newlabel{fig:networkDiagram}{{3.2}{32}{Win prediction multi-task recurrent neural network. $x^{(\text {meta})}$ consists of the player Elo and region, which are also included in $x^{(\text {flat})}$. $x^{(\text {rnn})}_{t, \cdot }$ contains the time since the recent match occurred, time of day, duration, overlapping class membership-encoded champion, and stats.\relax }{figure.caption.16}{}}
\@writefile{lot}{\contentsline {table}{\numberline {3.1}{\ignorespaces Model prediction targets (in no particular order).\relax }}{33}{table.caption.17}}
\newlabel{tab:modelOutputs}{{3.1}{33}{Model prediction targets (in no particular order).\relax }{table.caption.17}{}}
\@writefile{toc}{\contentsline {subsubsection}{Automatic Logarithmic Scaling}{33}{section*.18}}
\@writefile{toc}{\contentsline {subsection}{\numberline {3.1.6}Partial Composition Heuristics}{34}{subsection.3.1.6}}
\newlabel{sec:imputation}{{3.1.6}{34}{Partial Composition Heuristics}{subsection.3.1.6}{}}
\@writefile{toc}{\contentsline {subsection}{\numberline {3.1.7}Transfer Learning for Professional Prediction}{35}{subsection.3.1.7}}
\@writefile{toc}{\contentsline {subsection}{\numberline {3.1.8}Influence and Momentum Models}{36}{subsection.3.1.8}}
\@writefile{toc}{\contentsline {section}{\numberline {3.2}Request Server and Training Loop}{36}{section.3.2}}
\@writefile{toc}{\contentsline {section}{\numberline {3.3}Team Composition User Interface}{37}{section.3.3}}
\newlabel{sec:teamCompInterface}{{3.3}{37}{Team Composition User Interface}{section.3.3}{}}
\@writefile{lof}{\contentsline {figure}{\numberline {3.3}{\ignorespaces Team composition model graphical user interface (GUI), viewable at \url  {lorb.gg}.\relax }}{37}{figure.caption.19}}
\newlabel{fig:leagueOrb}{{3.3}{37}{Team composition model graphical user interface (GUI), viewable at \url {lorb.gg}.\relax }{figure.caption.19}{}}
\@writefile{toc}{\contentsline {section}{\numberline {3.4}Momentum App}{38}{section.3.4}}
\@writefile{lof}{\contentsline {figure}{\numberline {3.4}{\ignorespaces \emph  {Momentum} app interface, and an example notification.\relax }}{38}{figure.caption.20}}
\newlabel{fig:momentumApp}{{3.4}{38}{\emph {Momentum} app interface, and an example notification.\relax }{figure.caption.20}{}}
\@writefile{toc}{\contentsline {section}{\numberline {3.5}Adaptive Nudge Strategy}{39}{section.3.5}}
\@writefile{lot}{\contentsline {table}{\numberline {3.2}{\ignorespaces Motivational interviewing personal trainer vocabulary. Note that `game' refers to a match, except in the `play a different game [mode]' break recommendation. This vocabulary can be represented by a handful of discrete categorical variables, which is the action space of the reinforcement learning agent. $\emptyset $ represents an empty sequence (i.e., leave out the component). The four different possible messages for each case can be assigned to groups based on frankness, valence/neutrality, attribution, assertiveness and supportiveness.\relax }}{40}{table.caption.21}}
\newlabel{tab:ptVocab}{{3.2}{40}{Motivational interviewing personal trainer vocabulary. Note that `game' refers to a match, except in the `play a different game [mode]' break recommendation. This vocabulary can be represented by a handful of discrete categorical variables, which is the action space of the reinforcement learning agent. $\emptyset $ represents an empty sequence (i.e., leave out the component). The four different possible messages for each case can be assigned to groups based on frankness, valence/neutrality, attribution, assertiveness and supportiveness.\relax }{table.caption.21}{}}
\@writefile{toc}{\contentsline {chapter}{\numberline {4}Experiments}{41}{chapter.4}}
\@writefile{lof}{\addvspace {10\p@ }}
\@writefile{lot}{\addvspace {10\p@ }}
\@writefile{toc}{\contentsline {section}{\numberline {4.1}Data Collection}{41}{section.4.1}}
\@writefile{toc}{\contentsline {subsection}{\numberline {4.1.1}Data Sources}{41}{subsection.4.1.1}}
\@writefile{toc}{\contentsline {subsubsection}{Riot Games API}{41}{section*.22}}
\@writefile{toc}{\contentsline {subsubsection}{Blitz.gg and Champion.gg APIs}{42}{section*.23}}
\@writefile{toc}{\contentsline {subsubsection}{op.gg web scraping and AJAX API}{42}{section*.24}}
\@writefile{toc}{\contentsline {subsection}{\numberline {4.1.2}Data Crawling}{43}{subsection.4.1.2}}
\@writefile{toc}{\contentsline {subsubsection}{Requirements}{43}{section*.25}}
\@writefile{toc}{\contentsline {subsubsection}{Collected match data format}{43}{section*.26}}
\@writefile{toc}{\contentsline {subsubsection}{Crawler Specification}{44}{section*.27}}
\@writefile{toc}{\contentsline {section}{\numberline {4.2}Feature Extraction}{45}{section.4.2}}
\@writefile{toc}{\contentsline {section}{\numberline {4.3}Model Selection}{45}{section.4.3}}
\@writefile{toc}{\contentsline {section}{\numberline {4.4}Win Prediction Model Evaluation}{45}{section.4.4}}
\@writefile{lot}{\contentsline {table}{\numberline {4.1}{\ignorespaces Learning algorithm comparison, showing test and training datasets percentage correctly classified, and training time. The neural network model is trained on Graphics Processing Units (GPUs), on a cloud computing service (AWS p3.8x, with 4 Nvidia Tesla v100s), all other models are trained on an Intel i7-6700k processor. Variance in the accuracy was within $\pm $0.02\% over multiple training runs, and within $ \pm \sim 0.2$\% for different random sets of 70,000 samples out of the total 87,743, though the changes were consistent across different models (for the evaluation, a split was chosen that gave an accuracy closest to the mean of a few preliminary runs).\relax }}{46}{table.caption.28}}
\newlabel{tab:modelComparison}{{4.1}{46}{Learning algorithm comparison, showing test and training datasets percentage correctly classified, and training time. The neural network model is trained on Graphics Processing Units (GPUs), on a cloud computing service (AWS p3.8x, with 4 Nvidia Tesla v100s), all other models are trained on an Intel i7-6700k processor. Variance in the accuracy was within $\pm $0.02\% over multiple training runs, and within $ \pm \sim 0.2$\% for different random sets of 70,000 samples out of the total 87,743, though the changes were consistent across different models (for the evaluation, a split was chosen that gave an accuracy closest to the mean of a few preliminary runs).\relax }{table.caption.28}{}}
\@writefile{lot}{\contentsline {table}{\numberline {4.2}{\ignorespaces Model architecture importances. Note that the architectures and hyperparameters are not fully optimised on improvement exclusion.\relax }}{46}{table.caption.29}}
\newlabel{tab:modelImprovements}{{4.2}{46}{Model architecture importances. Note that the architectures and hyperparameters are not fully optimised on improvement exclusion.\relax }{table.caption.29}{}}
\@writefile{lof}{\contentsline {figure}{\numberline {4.1}{\ignorespaces Neural network classification rate and loss over 50 epochs of training. Accuracies are measured every 25 batches of 256 samples.\relax }}{46}{figure.caption.30}}
\newlabel{fig:learningCurve}{{4.1}{46}{Neural network classification rate and loss over 50 epochs of training. Accuracies are measured every 25 batches of 256 samples.\relax }{figure.caption.30}{}}
\@writefile{toc}{\contentsline {section}{\numberline {4.5}Feature Importances}{47}{section.4.5}}
\@writefile{lof}{\contentsline {figure}{\numberline {4.2}{\ignorespaces Feature importances table, as measured by drop in accuracy when the feature group is omitted, and their relative importance as a percentage of the total importance.\relax }}{47}{figure.caption.31}}
\newlabel{fig:featImps}{{4.2}{47}{Feature importances table, as measured by drop in accuracy when the feature group is omitted, and their relative importance as a percentage of the total importance.\relax }{figure.caption.31}{}}
\@writefile{lof}{\contentsline {figure}{\numberline {4.3}{\ignorespaces Role importances. These roughly correspond to the expected values based on in-game experience of the impact of particular lanes on the outcome of the match. Note that these figures are averages over season 9; short-term differences between patches may be significant.\relax }}{47}{figure.caption.32}}
\newlabel{fig:roleImps}{{4.3}{47}{Role importances. These roughly correspond to the expected values based on in-game experience of the impact of particular lanes on the outcome of the match. Note that these figures are averages over season 9; short-term differences between patches may be significant.\relax }{figure.caption.32}{}}
\@writefile{toc}{\contentsline {section}{\numberline {4.6}Professional Model}{48}{section.4.6}}
\newlabel{sec:proEval}{{4.6}{48}{Professional Model}{section.4.6}{}}
\@writefile{lof}{\contentsline {figure}{\numberline {4.4}{\ignorespaces Cross validation accuracy for each feature subset output of the Sequential Floating Forward Selection (SFFS), during the selection (5-fold), and for each of the three top pro leagues (20-fold). The peaks for each league are indicated, and these are the final subsets used.\relax }}{48}{figure.caption.33}}
\newlabel{fig:proSelection}{{4.4}{48}{Cross validation accuracy for each feature subset output of the Sequential Floating Forward Selection (SFFS), during the selection (5-fold), and for each of the three top pro leagues (20-fold). The peaks for each league are indicated, and these are the final subsets used.\relax }{figure.caption.33}{}}
\@writefile{lot}{\contentsline {table}{\numberline {4.3}{\ignorespaces Selected features for the LEC Gauntlet, 36 chosen from a total of 1336. These include solo/duo queue features, professional historical performance features, and derivative features.\relax }}{49}{table.caption.34}}
\newlabel{tab:proFeats}{{4.3}{49}{Selected features for the LEC Gauntlet, 36 chosen from a total of 1336. These include solo/duo queue features, professional historical performance features, and derivative features.\relax }{table.caption.34}{}}
\@writefile{lot}{\contentsline {table}{\numberline {4.4}{\ignorespaces LEC Gauntlet predictions, in chronological order.\relax }}{49}{table.caption.35}}
\newlabel{tab:proPreds}{{4.4}{49}{LEC Gauntlet predictions, in chronological order.\relax }{table.caption.35}{}}
\@writefile{toc}{\contentsline {section}{\numberline {4.7}Influence and Momentum Conditioning}{50}{section.4.7}}
\@writefile{toc}{\contentsline {subsection}{\numberline {4.7.1}Training}{50}{subsection.4.7.1}}
\@writefile{toc}{\contentsline {subsubsection}{Minibatching method}{50}{section*.36}}
\@writefile{toc}{\contentsline {subsubsection}{Optimisation}{50}{section*.37}}
\@writefile{lof}{\contentsline {figure}{\numberline {4.5}{\ignorespaces Recent games based model training over 13 epochs.\relax }}{50}{figure.caption.38}}
\newlabel{fig:momentum_fresh_lc}{{4.5}{50}{Recent games based model training over 13 epochs.\relax }{figure.caption.38}{}}
\@writefile{lof}{\contentsline {figure}{\numberline {4.6}{\ignorespaces Recent games based model with transfer learning (\emph  {momentum}) over 15 epochs.\relax }}{51}{figure.caption.39}}
\newlabel{fig:momentum_tl_lc}{{4.6}{51}{Recent games based model with transfer learning (\emph {momentum}) over 15 epochs.\relax }{figure.caption.39}{}}
\@writefile{lof}{\contentsline {figure}{\numberline {4.7}{\ignorespaces Recent games \& history based model (no transfer learning) training over 53 epochs.\relax }}{51}{figure.caption.40}}
\newlabel{fig:influence_fresh_lc}{{4.7}{51}{Recent games \& history based model (no transfer learning) training over 53 epochs.\relax }{figure.caption.40}{}}
\@writefile{lof}{\contentsline {figure}{\numberline {4.8}{\ignorespaces Recent games \& history based model with transfer learning (\emph  {influence}) training over 50 epochs.\relax }}{51}{figure.caption.41}}
\newlabel{fig:influence_tl_lc}{{4.8}{51}{Recent games \& history based model with transfer learning (\emph {influence}) training over 50 epochs.\relax }{figure.caption.41}{}}
\@writefile{toc}{\contentsline {subsection}{\numberline {4.7.2}Evaluation}{51}{subsection.4.7.2}}
\newlabel{sec:momentumEval}{{4.7.2}{51}{Evaluation}{subsection.4.7.2}{}}
\@writefile{lot}{\contentsline {table}{\numberline {4.5}{\ignorespaces Accuracies for single player performance models.\relax }}{52}{table.caption.42}}
\newlabel{tab:modelRes}{{4.5}{52}{Accuracies for single player performance models.\relax }{table.caption.42}{}}
\@writefile{lof}{\contentsline {figure}{\numberline {4.9}{\ignorespaces The prior streak size vs. the game session game count after the following match. The points are annotated with the number of data points used to compute the point. Error bars represent one 1/100\textsuperscript  {th} of the variance.\relax }}{52}{figure.caption.43}}
\newlabel{fig:sessionCont}{{4.9}{52}{The prior streak size vs. the game session game count after the following match. The points are annotated with the number of data points used to compute the point. Error bars represent one 1/100\textsuperscript {th} of the variance.\relax }{figure.caption.43}{}}
\@writefile{lof}{\contentsline {figure}{\numberline {4.10}{\ignorespaces Streak length compared to session length (the average for particular players). The color temperature represents the average Elo skill rating of the player. The Theil-Sen estimator is computed 10 times and the average coefficients are used to draw a line of best fit (in red), and the average gradient is shown. Other robust linear estimators found very similar fits.\relax }}{53}{figure.caption.44}}
\newlabel{fig:tiltAddicts}{{4.10}{53}{Streak length compared to session length (the average for particular players). The color temperature represents the average Elo skill rating of the player. The Theil-Sen estimator is computed 10 times and the average coefficients are used to draw a line of best fit (in red), and the average gradient is shown. Other robust linear estimators found very similar fits.\relax }{figure.caption.44}{}}
\@writefile{lof}{\contentsline {figure}{\numberline {4.11}{\ignorespaces Accuracy for representational groups of players with similar average session length. The momentum model (as others) performed relatively well for low session lengths - this may be due to casual players's short term skill or skill retention being highly dependent on only the most recent matches. Apart from this, these is a slight positive correlation from 1.86 on.\relax }}{53}{figure.caption.45}}
\newlabel{fig:tiltSess}{{4.11}{53}{Accuracy for representational groups of players with similar average session length. The momentum model (as others) performed relatively well for low session lengths - this may be due to casual players's short term skill or skill retention being highly dependent on only the most recent matches. Apart from this, these is a slight positive correlation from 1.86 on.\relax }{figure.caption.45}{}}
\@writefile{lof}{\contentsline {figure}{\numberline {4.12}{\ignorespaces Accuracy for representational groups of players with similar average win streak length. A slight positive correlation is seen in all models. The low accuracy seen for the highest win streak length group may be due to \emph  {smurf} accounts - players of a high Elo playing on accounts in low Elo, achieving anomalous performances.\relax }}{54}{figure.caption.46}}
\newlabel{fig:momentumWins}{{4.12}{54}{Accuracy for representational groups of players with similar average win streak length. A slight positive correlation is seen in all models. The low accuracy seen for the highest win streak length group may be due to \emph {smurf} accounts - players of a high Elo playing on accounts in low Elo, achieving anomalous performances.\relax }{figure.caption.46}{}}
\@writefile{lof}{\contentsline {figure}{\numberline {4.13}{\ignorespaces Accuracy for representational groups of players with similar average loss streak length. A small positive association is seen in the momentum model, which is less pronounced in the other models. The inaccuracy for the highest loss streak length group may be due to \emph  {boosting} - low skill players who purchase high Elo accounts, or hire another player to raise their own account's Elo, producing anomalously poor results when the player returns.\relax }}{54}{figure.caption.47}}
\newlabel{fig:tiltLosses}{{4.13}{54}{Accuracy for representational groups of players with similar average loss streak length. A small positive association is seen in the momentum model, which is less pronounced in the other models. The inaccuracy for the highest loss streak length group may be due to \emph {boosting} - low skill players who purchase high Elo accounts, or hire another player to raise their own account's Elo, producing anomalously poor results when the player returns.\relax }{figure.caption.47}{}}
\@writefile{lof}{\contentsline {figure}{\numberline {4.14}{\ignorespaces Accuracy for representational groups of players with similar streak length (either win or loss). This comparison more clearly shows the conditioning of the momentum model, as it is the only model with a consistent, though small, positive correlation. By considering win streak lengths and loss streak lengths without distinction between the two, i.e., without normalising for the magnitude and spread, we can compare correlations that are more closely aligned with the amount of time spent streaking (assuming that wins and losses last approximately the same amount of time even when a player is significantly tilted). The same anomalies for very small and large average streak lengths are still present.\relax }}{55}{figure.caption.48}}
\newlabel{fig:tiltStreaks}{{4.14}{55}{Accuracy for representational groups of players with similar streak length (either win or loss). This comparison more clearly shows the conditioning of the momentum model, as it is the only model with a consistent, though small, positive correlation. By considering win streak lengths and loss streak lengths without distinction between the two, i.e., without normalising for the magnitude and spread, we can compare correlations that are more closely aligned with the amount of time spent streaking (assuming that wins and losses last approximately the same amount of time even when a player is significantly tilted). The same anomalies for very small and large average streak lengths are still present.\relax }{figure.caption.48}{}}
\@writefile{lof}{\contentsline {figure}{\numberline {4.15}{\ignorespaces Average win probability estimate for representational groups of players with similar skill (Elo brackets). Scatter plots of the same data are given in the appendix (figure \ref  {fig:eloScatter}). Win probability varies the least in absolute value, with Elo, in the momentum model, though the small positive link is consistent. The differences between mean, median, and mode of the true distrubtion are due to various non-normalities (non-Gaussian distribution of probabilities) and heteroscedasticity (the variance changes with Elo).\relax }}{55}{figure.caption.49}}
\newlabel{fig:eloGradient}{{4.15}{55}{Average win probability estimate for representational groups of players with similar skill (Elo brackets). Scatter plots of the same data are given in the appendix (figure \ref {fig:eloScatter}). Win probability varies the least in absolute value, with Elo, in the momentum model, though the small positive link is consistent. The differences between mean, median, and mode of the true distrubtion are due to various non-normalities (non-Gaussian distribution of probabilities) and heteroscedasticity (the variance changes with Elo).\relax }{figure.caption.49}{}}
\@writefile{toc}{\contentsline {chapter}{\numberline {5}Conclusions}{56}{chapter.5}}
\@writefile{lof}{\addvspace {10\p@ }}
\@writefile{lot}{\addvspace {10\p@ }}
\@writefile{toc}{\contentsline {section}{\numberline {5.1}Limitations}{56}{section.5.1}}
\@writefile{toc}{\contentsline {subsection}{\numberline {5.1.1}Data Resolution}{56}{subsection.5.1.1}}
\newlabel{sec:dataRes}{{5.1.1}{56}{Data Resolution}{subsection.5.1.1}{}}
\@writefile{toc}{\contentsline {subsection}{\numberline {5.1.2}Specificity}{56}{subsection.5.1.2}}
\@writefile{toc}{\contentsline {subsection}{\numberline {5.1.3}Effect Size}{57}{subsection.5.1.3}}
\@writefile{toc}{\contentsline {section}{\numberline {5.2}Future Work}{57}{section.5.2}}
\newlabel{sec:futWork}{{5.2}{57}{Future Work}{section.5.2}{}}
\@writefile{toc}{\contentsline {subsection}{\numberline {5.2.1}In-game Timeline Features}{57}{subsection.5.2.1}}
\newlabel{sec:timelineFeats}{{5.2.1}{57}{In-game Timeline Features}{subsection.5.2.1}{}}
\@writefile{toc}{\contentsline {subsection}{\numberline {5.2.2}Implementation of Reinforcement Learning Framework}{58}{subsection.5.2.2}}
\@writefile{toc}{\contentsline {subsection}{\numberline {5.2.3}Longitudinal Survey}{58}{subsection.5.2.3}}
\newlabel{sec:longSurvey}{{5.2.3}{58}{Longitudinal Survey}{subsection.5.2.3}{}}
\@writefile{toc}{\contentsline {subsection}{\numberline {5.2.4}Pre-match Team Analysis for Subpar Composition Detection}{58}{subsection.5.2.4}}
\@writefile{toc}{\contentsline {subsection}{\numberline {5.2.5}Matchmaking Algorithm Balance Adjustments}{58}{subsection.5.2.5}}
\@writefile{toc}{\contentsline {subsection}{\numberline {5.2.6}Application to Other Video Games}{59}{subsection.5.2.6}}
\@writefile{toc}{\contentsline {subsection}{\numberline {5.2.7}Application to Gambling}{59}{subsection.5.2.7}}
\@writefile{toc}{\contentsline {subsection}{\numberline {5.2.8}Application to Other Areas}{59}{subsection.5.2.8}}
\@writefile{toc}{\contentsline {chapter}{\numberline {6}Appendices}{60}{chapter.6}}
\@writefile{lof}{\addvspace {10\p@ }}
\@writefile{lot}{\addvspace {10\p@ }}
\@writefile{toc}{\contentsline {section}{\numberline {6.1}Feature List}{60}{section.6.1}}
\newlabel{sec:allfeats}{{6.1}{60}{Feature List}{section.6.1}{}}
\@writefile{toc}{\contentsline {section}{\numberline {6.2}Partial Composition Submodel Accuracies}{65}{section.6.2}}
\newlabel{sec:partialAccs}{{6.2}{65}{Partial Composition Submodel Accuracies}{section.6.2}{}}
\@writefile{lot}{\contentsline {table}{\numberline {6.1}{\ignorespaces Number of (scalar) features $m$, test and training accuracies for partial composition submodels (logistic regression). `1' represents 1-4 of the given inputs.\relax }}{65}{table.caption.50}}
\newlabel{tab:submodelAccs}{{6.1}{65}{Number of (scalar) features $m$, test and training accuracies for partial composition submodels (logistic regression). `1' represents 1-4 of the given inputs.\relax }{table.caption.50}{}}
\@writefile{toc}{\contentsline {section}{\numberline {6.3}TensorFlow Computational Graph}{66}{section.6.3}}
\newlabel{sec:tfGraph}{{6.3}{66}{TensorFlow Computational Graph}{section.6.3}{}}
\@writefile{lof}{\contentsline {figure}{\numberline {6.1}{\ignorespaces Graph drawn by TensorBoard.\relax }}{66}{figure.caption.51}}
\@writefile{toc}{\contentsline {section}{\numberline {6.4}Extra graphs}{67}{section.6.4}}
\newlabel{sec:histograms}{{6.4}{67}{Extra graphs}{section.6.4}{}}
\@writefile{lof}{\contentsline {figure}{\numberline {6.2}{\ignorespaces Number of recent games histogram, for the full set of 177,430 player occurrences in the test set. The usual maximum length is 19, as the 20\textsuperscript  {th} is the test game we are predicting for, though in some cases (0.1\% of the test set) op.gg had not yet updated and so all 20 games precede the target and can be used.\relax }}{67}{figure.caption.52}}
\newlabel{fig:recent_hist}{{6.2}{67}{Number of recent games histogram, for the full set of 177,430 player occurrences in the test set. The usual maximum length is 19, as the 20\textsuperscript {th} is the test game we are predicting for, though in some cases (0.1\% of the test set) op.gg had not yet updated and so all 20 games precede the target and can be used.\relax }{figure.caption.52}{}}
\@writefile{lof}{\contentsline {figure}{\numberline {6.3}{\ignorespaces Summoner average statistics histograms for the 15,807 players sampled in section \ref  {sec:momentumEval}.\relax }}{67}{figure.caption.53}}
\newlabel{fig:player_averages_hists}{{6.3}{67}{Summoner average statistics histograms for the 15,807 players sampled in section \ref {sec:momentumEval}.\relax }{figure.caption.53}{}}
\@writefile{lof}{\contentsline {figure}{\numberline {6.4}{\ignorespaces Scatter plot of player average skill rating vs. player average win probability estimate. The lower spread of the momentum estimates, and the lower variance in the spread, can be seen when accounting for relative scale.\relax }}{68}{figure.caption.54}}
\newlabel{fig:eloScatter}{{6.4}{68}{Scatter plot of player average skill rating vs. player average win probability estimate. The lower spread of the momentum estimates, and the lower variance in the spread, can be seen when accounting for relative scale.\relax }{figure.caption.54}{}}
\bibcite{sopermiller}{1}
\bibcite{griffiths}{2}
\bibcite{wittek}{3}
\bibcite{saunders}{4}
\bibcite{zendle}{5}
\bibcite{parker}{6}
\bibcite{gainsbury}{7}
\bibcite{chen2}{8}
\bibcite{park}{9}
\bibcite{liu}{10}
\bibcite{ko}{11}
\@writefile{toc}{\contentsline {chapter}{Bibliography}{69}{chapter*.55}}
\bibcite{du}{12}
\bibcite{han}{13}
\bibcite{weinstein}{14}
\bibcite{nbowman}{15}
\bibcite{bean}{16}
\bibcite{deleuze}{17}
\bibcite{king}{18}
\bibcite{lemmens}{19}
\bibcite{urban}{20}
\bibcite{browne}{21}
\bibcite{wei}{22}
\bibcite{palomaki}{23}
\bibcite{laakasuo}{24}
\bibcite{hudson}{25}
\bibcite{olsson}{26}
\bibcite{blackburn}{27}
\bibcite{maher}{28}
\bibcite{ritotilt}{29}
\bibcite{tyack}{30}
\bibcite{skarupova}{31}
\bibcite{solinas}{32}
\bibcite{kou}{33}
\bibcite{meredith}{34}
\bibcite{delfabbro}{35}
\bibcite{graham}{36}
\bibcite{miller}{37}
\bibcite{stockdale}{38}
\bibcite{petry}{39}
\bibcite{vanrooij}{40}
\bibcite{kuss}{41}
\bibcite{kardefelt}{42}
\bibcite{ferguson}{43}
\bibcite{aarseth}{44}
\bibcite{mihara}{45}
\bibcite{kiraly}{46}
\bibcite{james}{47}
\bibcite{higuchi}{48}
\bibcite{przybylski}{49}
\bibcite{rumpf}{50}
\bibcite{colwell}{51}
\bibcite{pontes}{52}
\bibcite{montag}{53}
\bibcite{igdbook}{54}
\bibcite{herd}{55}
\bibcite{sariyska}{56}
\bibcite{laier}{57}
\bibcite{hyun}{58}
\bibcite{komnenic}{59}
\bibcite{huanhuan}{60}
\bibcite{dong}{61}
\bibcite{ko2}{62}
\bibcite{yao}{63}
\bibcite{li}{64}
\bibcite{qi}{65}
\bibcite{nuyens}{66}
\bibcite{brunborg}{67}
\bibcite{heiden}{68}
\bibcite{hussain}{69}
\bibcite{linden}{70}
\bibcite{su}{71}
\bibcite{walker}{72}
\bibcite{bekir}{73}
\bibcite{triberti}{74}
\bibcite{sendurur}{75}
\bibcite{choi}{76}
\bibcite{park2}{77}
\bibcite{lee}{78}
\bibcite{zajac}{79}
\bibcite{bonnaire}{80}
\bibcite{developers}{81}
\bibcite{corporations}{82}
\bibcite{heijden}{83}
\bibcite{arno}{84}
\bibcite{musolesi}{85}
\bibcite{tao}{86}
\bibcite{murphy}{87}
\bibcite{nemati}{88}
\bibcite{cover}{89}
\bibcite{granic}{90}
\bibcite{cooke}{91}
\bibcite{kleinberg}{92}
\bibcite{ayton}{93}
\bibcite{csapo}{94}
\bibcite{brockner}{95}
\bibcite{crust}{96}
\bibcite{swann}{97}
\bibcite{dota2cp}{98}
\bibcite{conley}{99}
\bibcite{agarwala}{100}
\bibcite{pobiedina}{101}
\bibcite{traas}{102}
\bibcite{kalyanaraman}{103}
\bibcite{semenov}{104}
\bibcite{semenov2}{105}
\bibcite{myslak}{106}
\bibcite{kotaku}{107}
\bibcite{wu}{108}
\bibcite{hodge}{109}
\bibcite{nascimento}{110}
\bibcite{chen}{111}
\bibcite{almeida}{112}
\bibcite{makarov}{113}
\bibcite{graepel}{114}
\bibcite{sapienza}{115}
\bibcite{wang}{116}
\bibcite{beskyd}{117}
\bibcite{grutzik}{118}
\bibcite{maymin}{119}
\bibcite{yang}{120}
\bibcite{puYang}{121}
\bibcite{schubert}{122}
\bibcite{johansson}{123}
\bibcite{yu}{124}
\bibcite{deja}{125}
\bibcite{zhang}{126}
\bibcite{openai}{127}
\bibcite{nakariyakula}{128}
\bibcite{shen}{129}
